formattedEffectiveDate,indexValue
14-Jun-2016,403.4571
15-Jun-2016,403.6456
16-Jun-2016,402.6402
17-Jun-2016,403.3092
20-Jun-2016,405.4995
21-Jun-2016,405.7527
22-Jun-2016,406.4776
23-Jun-2016,407.7559
24-Jun-2016,404.7747
27-Jun-2016,402.6209
28-Jun-2016,403.3323
29-Jun-2016,405.6825
30-Jun-2016,406.7329
01-Jul-2016,408.4374
04-Jul-2016,408.5612
05-Jul-2016,409.0622
06-Jul-2016,409.062
07-Jul-2016,409.9144
08-Jul-2016,411.388
11-Jul-2016,413.4678
12-Jul-2016,415.3055
13-Jul-2016,415.5408
14-Jul-2016,416.1806
15-Jul-2016,416.3414
18-Jul-2016,416.5083
19-Jul-2016,416.7825
20-Jul-2016,416.9989
21-Jul-2016,417.3001
22-Jul-2016,417.5685
25-Jul-2016,417.6999
26-Jul-2016,416.9895
27-Jul-2016,416.9906
28-Jul-2016,416.945
29-Jul-2016,416.8184
01-Aug-2016,416.904
02-Aug-2016,416.1659
03-Aug-2016,416.0938
04-Aug-2016,417.264
05-Aug-2016,418.4515
08-Aug-2016,419.54
09-Aug-2016,420.6687
10-Aug-2016,421.3557
11-Aug-2016,421.5037
12-Aug-2016,421.9912
15-Aug-2016,422.7334
16-Aug-2016,423.3695
17-Aug-2016,423.53
18-Aug-2016,423.9853
19-Aug-2016,423.9768
22-Aug-2016,424.1943
23-Aug-2016,424.5686
24-Aug-2016,424.6837
25-Aug-2016,424.5799
26-Aug-2016,424.8394
29-Aug-2016,425.1421
30-Aug-2016,425.4607
31-Aug-2016,425.2027
01-Sep-2016,424.8944
02-Sep-2016,425.3259
05-Sep-2016,425.415
06-Sep-2016,426.4629
07-Sep-2016,427.1869
08-Sep-2016,427.4142
09-Sep-2016,425.7024
12-Sep-2016,424.6878
13-Sep-2016,423.7095
14-Sep-2016,423.1618
15-Sep-2016,423.1698
16-Sep-2016,422.935
19-Sep-2016,423.417
20-Sep-2016,423.59
21-Sep-2016,423.9262
22-Sep-2016,426.7033
23-Sep-2016,427.0434
26-Sep-2016,426.6604
27-Sep-2016,426.5709
28-Sep-2016,427.1865
29-Sep-2016,427.8442
30-Sep-2016,428.1123
03-Oct-2016,428.8505
04-Oct-2016,429.1697
05-Oct-2016,429.2952
06-Oct-2016,429.4526
07-Oct-2016,429.2491
10-Oct-2016,429.2922
11-Oct-2016,429.413
12-Oct-2016,429.2681
13-Oct-2016,429.0234
14-Oct-2016,429.3228
17-Oct-2016,429.3393
18-Oct-2016,429.6787
19-Oct-2016,430.5038
20-Oct-2016,431.3699
21-Oct-2016,431.5967
24-Oct-2016,432.2661
25-Oct-2016,432.4336
26-Oct-2016,431.4291
27-Oct-2016,430.4314
28-Oct-2016,429.6167
31-Oct-2016,429.0765
01-Nov-2016,427.6105
02-Nov-2016,426.706
03-Nov-2016,426.6432
04-Nov-2016,426.322
07-Nov-2016,427.9162
08-Nov-2016,428.3569
09-Nov-2016,426.9269
10-Nov-2016,424.7509
11-Nov-2016,424.5019
14-Nov-2016,419.5895
15-Nov-2016,421.9552
16-Nov-2016,422.1235
17-Nov-2016,422.6672
18-Nov-2016,421.959
21-Nov-2016,422.5722
22-Nov-2016,423.529
23-Nov-2016,423.3699
24-Nov-2016,423.4135
25-Nov-2016,423.3918
28-Nov-2016,424.0309
29-Nov-2016,423.8353
30-Nov-2016,424.2526
01-Dec-2016,423.8252
02-Dec-2016,424.1296
05-Dec-2016,424.9972
06-Dec-2016,426.3973
07-Dec-2016,428.0793
08-Dec-2016,428.5681
09-Dec-2016,429.0833
12-Dec-2016,429.5852
13-Dec-2016,430.3052
14-Dec-2016,430.4704
15-Dec-2016,429.0085
16-Dec-2016,429.0738
19-Dec-2016,429.6765
20-Dec-2016,429.9188
21-Dec-2016,430.3966
22-Dec-2016,430.6369
23-Dec-2016,430.9663
26-Dec-2016,430.9663
27-Dec-2016,431.4653
28-Dec-2016,431.8789
29-Dec-2016,432.0988
30-Dec-2016,432.2626
03-Jan-2017,433.2576
04-Jan-2017,434.6479
05-Jan-2017,435.8827
06-Jan-2017,436.3316
09-Jan-2017,436.5898
10-Jan-2017,436.844
11-Jan-2017,436.5219
12-Jan-2017,436.7437
13-Jan-2017,437.1171
16-Jan-2017,437.1607
17-Jan-2017,437.9239
18-Jan-2017,437.78
19-Jan-2017,437.2145
20-Jan-2017,437.2282
23-Jan-2017,437.5336
24-Jan-2017,437.7538
25-Jan-2017,438.1335
26-Jan-2017,438.4159
27-Jan-2017,438.8321
30-Jan-2017,438.7974
31-Jan-2017,438.6317
01-Feb-2017,439.0339
02-Feb-2017,439.6352
03-Feb-2017,440.5618
06-Feb-2017,441.1771
07-Feb-2017,441.1445
08-Feb-2017,440.9441
09-Feb-2017,441.1543
10-Feb-2017,441.6243
13-Feb-2017,442.2848
14-Feb-2017,442.4306
15-Feb-2017,442.3543
16-Feb-2017,442.4762
17-Feb-2017,442.2835
20-Feb-2017,442.3518
21-Feb-2017,443.2794
22-Feb-2017,443.8608
23-Feb-2017,444.5178
24-Feb-2017,444.6921
27-Feb-2017,444.9693
28-Feb-2017,445.3504
01-Mar-2017,445.8521
02-Mar-2017,445.7502
03-Mar-2017,445.557
06-Mar-2017,445.2809
07-Mar-2017,444.6862
08-Mar-2017,443.1035
09-Mar-2017,441.2178
10-Mar-2017,441.4857
13-Mar-2017,441.0719
14-Mar-2017,439.6468
15-Mar-2017,440.8035
16-Mar-2017,442.5204
17-Mar-2017,442.8171
20-Mar-2017,442.9739
21-Mar-2017,442.7326
22-Mar-2017,441.891
23-Mar-2017,442.3302
24-Mar-2017,442.9171
27-Mar-2017,442.9255
28-Mar-2017,443.5053
29-Mar-2017,444.3815
30-Mar-2017,445.2804
31-Mar-2017,445.2417
03-Apr-2017,445.5755
04-Apr-2017,445.6596
05-Apr-2017,446.4028
06-Apr-2017,446.7138
07-Apr-2017,446.9901
10-Apr-2017,447.3083
11-Apr-2017,447.3475
12-Apr-2017,447.3078
13-Apr-2017,447.5466
14-Apr-2017,447.5466
17-Apr-2017,447.7123
18-Apr-2017,447.8374
19-Apr-2017,448.0608
20-Apr-2017,448.2186
21-Apr-2017,448.5228
24-Apr-2017,449.6286
25-Apr-2017,450.1783
26-Apr-2017,450.63
27-Apr-2017,450.8222
28-Apr-2017,451.5066
01-May-2017,451.6043
02-May-2017,452.1453
03-May-2017,452.413
04-May-2017,451.5857
05-May-2017,451.2613
08-May-2017,451.5274
09-May-2017,451.6295
10-May-2017,452.1072
11-May-2017,452.4757
12-May-2017,452.8071
15-May-2017,453.4024
16-May-2017,453.6601
17-May-2017,453.2749
18-May-2017,451.894
19-May-2017,452.819
22-May-2017,453.274
23-May-2017,453.5397
24-May-2017,454.1075
25-May-2017,454.4624
26-May-2017,454.6308
29-May-2017,454.6308
30-May-2017,455.0933
31-May-2017,455.1636
01-Jun-2017,455.5598
02-Jun-2017,456.177
05-Jun-2017,456.401
06-Jun-2017,456.4775
07-Jun-2017,456.042
08-Jun-2017,455.7168
09-Jun-2017,455.7601
12-Jun-2017,455.868
13-Jun-2017,456.1614
14-Jun-2017,456.6721
15-Jun-2017,456.0506
16-Jun-2017,456.0469
19-Jun-2017,456.1756
20-Jun-2017,455.3315
21-Jun-2017,454.4554
22-Jun-2017,454.3341
23-Jun-2017,454.7307
26-Jun-2017,455.4479
27-Jun-2017,455.4729
28-Jun-2017,455.3489
29-Jun-2017,455.0883
30-Jun-2017,455.0178
03-Jul-2017,455.1537
04-Jul-2017,455.1923
05-Jul-2017,454.9712
06-Jul-2017,454.05
07-Jul-2017,453.2908
10-Jul-2017,454.0054
11-Jul-2017,454.1302
12-Jul-2017,455.3925
13-Jul-2017,455.7321
14-Jul-2017,456.4387
17-Jul-2017,457.2421
18-Jul-2017,457.68
19-Jul-2017,458.2164
20-Jul-2017,458.497
21-Jul-2017,458.7979
24-Jul-2017,458.6208
25-Jul-2017,458.6973
26-Jul-2017,459.3846
27-Jul-2017,459.4075
28-Jul-2017,459.3843
31-Jul-2017,459.5158
01-Aug-2017,459.758
02-Aug-2017,459.9986
03-Aug-2017,460.6256
04-Aug-2017,460.4828
07-Aug-2017,460.7947
08-Aug-2017,460.6543
09-Aug-2017,459.5082
10-Aug-2017,458.5512
11-Aug-2017,458.1285
14-Aug-2017,459.1673
15-Aug-2017,459.1308
16-Aug-2017,459.5887
17-Aug-2017,459.4527
18-Aug-2017,459.1684
21-Aug-2017,459.4719
22-Aug-2017,459.5853
23-Aug-2017,459.7405
24-Aug-2017,460.2475
25-Aug-2017,460.7082
28-Aug-2017,460.8552
29-Aug-2017,460.9253
30-Aug-2017,461.382
31-Aug-2017,462.1748
01-Sep-2017,462.3765
04-Sep-2017,462.4179
05-Sep-2017,463.0385
06-Sep-2017,463.2433
07-Sep-2017,463.691
08-Sep-2017,463.6462
11-Sep-2017,463.8532
12-Sep-2017,463.821
13-Sep-2017,463.9492
14-Sep-2017,464.1408
15-Sep-2017,464.2575
18-Sep-2017,464.6031
19-Sep-2017,464.5585
20-Sep-2017,464.5107
21-Sep-2017,464.3665
22-Sep-2017,464.5935
25-Sep-2017,464.7761
26-Sep-2017,464.955
27-Sep-2017,464.5042
28-Sep-2017,464.921
29-Sep-2017,465.4187
02-Oct-2017,465.6927
03-Oct-2017,466.0414
04-Oct-2017,466.2772
05-Oct-2017,466.5418
06-Oct-2017,466.3388
09-Oct-2017,466.3951
10-Oct-2017,466.6969
11-Oct-2017,466.894
12-Oct-2017,467.0448
13-Oct-2017,467.3233
16-Oct-2017,467.538
17-Oct-2017,467.9596
18-Oct-2017,468.2675
19-Oct-2017,468.3981
20-Oct-2017,468.2766
23-Oct-2017,468.4776
24-Oct-2017,468.4985
25-Oct-2017,467.827
26-Oct-2017,467.3543
27-Oct-2017,467.7019
30-Oct-2017,468.3379
31-Oct-2017,468.4224
01-Nov-2017,468.7165
02-Nov-2017,468.9238
03-Nov-2017,467.7736
06-Nov-2017,467.4847
07-Nov-2017,466.5508
08-Nov-2017,465.5381
09-Nov-2017,464.1497
10-Nov-2017,464.0967
13-Nov-2017,464.2952
14-Nov-2017,463.4318
15-Nov-2017,462.609
16-Nov-2017,464.4724
17-Nov-2017,464.8172
20-Nov-2017,465.1543
21-Nov-2017,465.6767
22-Nov-2017,466.1537
23-Nov-2017,466.196
24-Nov-2017,466.5213
27-Nov-2017,467.0043
28-Nov-2017,467.0218
29-Nov-2017,466.8488
30-Nov-2017,466.8118
01-Dec-2017,466.8349
04-Dec-2017,467.2704
05-Dec-2017,467.6207
06-Dec-2017,467.4032
07-Dec-2017,467.0319
08-Dec-2017,467.1612
11-Dec-2017,467.4905
12-Dec-2017,467.6076
13-Dec-2017,467.7765
14-Dec-2017,467.6466
15-Dec-2017,467.8187
18-Dec-2017,468.0246
19-Dec-2017,467.8697
20-Dec-2017,467.6366
21-Dec-2017,467.7631
22-Dec-2017,467.8436
25-Dec-2017,467.8436
26-Dec-2017,468.1936
27-Dec-2017,468.4705
28-Dec-2017,468.5791
29-Dec-2017,468.6428
02-Jan-2018,469.0585
03-Jan-2018,470.2041
04-Jan-2018,471.2221
05-Jan-2018,471.7449
08-Jan-2018,471.9086
09-Jan-2018,471.7861
10-Jan-2018,470.9609
11-Jan-2018,471.2132
12-Jan-2018,471.3552
15-Jan-2018,471.4316
16-Jan-2018,471.9693
17-Jan-2018,471.8259
18-Jan-2018,471.518
19-Jan-2018,471.0666
22-Jan-2018,471.2173
23-Jan-2018,471.7679
24-Jan-2018,471.856
25-Jan-2018,472.1487
26-Jan-2018,472.198
29-Jan-2018,471.6316
30-Jan-2018,470.6582
31-Jan-2018,471.0993
01-Feb-2018,470.7739
02-Feb-2018,469.3754
05-Feb-2018,468.4421
06-Feb-2018,467.0756
07-Feb-2018,468.1472
08-Feb-2018,466.0375
09-Feb-2018,462.8298
12-Feb-2018,463.9995
13-Feb-2018,462.8424
14-Feb-2018,462.3833
15-Feb-2018,464.2091
16-Feb-2018,465.7716
19-Feb-2018,465.8736
20-Feb-2018,465.9581
21-Feb-2018,465.7848
22-Feb-2018,465.2934
23-Feb-2018,465.3191
26-Feb-2018,466.5329
27-Feb-2018,466.5124
28-Feb-2018,466.5836
01-Mar-2018,465.8938
02-Mar-2018,464.875
05-Mar-2018,465.3741
06-Mar-2018,466.1133
07-Mar-2018,465.6687
08-Mar-2018,465.8695
09-Mar-2018,466.4257
12-Mar-2018,466.7381
13-Mar-2018,466.4844
14-Mar-2018,466.2432
15-Mar-2018,465.8873
16-Mar-2018,465.9086
19-Mar-2018,465.2278
20-Mar-2018,464.7562
21-Mar-2018,464.9369
22-Mar-2018,464.5819
23-Mar-2018,463.8387
26-Mar-2018,464.0224
27-Mar-2018,464.8584
28-Mar-2018,464.6435
29-Mar-2018,465.3102
30-Mar-2018,465.3102
02-Apr-2018,465.1282
03-Apr-2018,465.211
04-Apr-2018,465.3025
05-Apr-2018,466.4844
06-Apr-2018,466.7732
09-Apr-2018,466.9132
10-Apr-2018,467.5323
11-Apr-2018,467.7414
12-Apr-2018,468.3707
13-Apr-2018,468.8392
16-Apr-2018,469.1826
17-Apr-2018,469.5801
18-Apr-2018,469.6492
19-Apr-2018,468.4069
20-Apr-2018,467.8683
23-Apr-2018,467.2449
24-Apr-2018,466.7324
25-Apr-2018,465.5829
26-Apr-2018,465.9925
27-Apr-2018,465.9382
30-Apr-2018,465.9485
01-May-2018,465.2238
02-May-2018,464.6488
03-May-2018,463.788
04-May-2018,463.5612
07-May-2018,463.7492
08-May-2018,462.7971
09-May-2018,462.2568
10-May-2018,463.6707
11-May-2018,464.1938
14-May-2018,464.3098
15-May-2018,463.0975
16-May-2018,463.3985
17-May-2018,463.1469
18-May-2018,462.5642
21-May-2018,462.5358
22-May-2018,463.1625
23-May-2018,463.121
24-May-2018,463.5435
25-May-2018,463.5501
28-May-2018,463.5501
29-May-2018,462.3781
30-May-2018,462.345
31-May-2018,462.0116
01-Jun-2018,461.7977
04-Jun-2018,462.7765
05-Jun-2018,463.2554
06-Jun-2018,463.0609
07-Jun-2018,463.2474
08-Jun-2018,463.0014
11-Jun-2018,463.2127
12-Jun-2018,462.9866
13-Jun-2018,463.0148
14-Jun-2018,463.3996
15-Jun-2018,462.9791
18-Jun-2018,462.1394
19-Jun-2018,461.1116
20-Jun-2018,462.2
21-Jun-2018,462.4209
22-Jun-2018,463.1557
25-Jun-2018,462.3545
26-Jun-2018,461.8334
27-Jun-2018,461.3405
28-Jun-2018,459.9853
29-Jun-2018,460.1918
02-Jul-2018,459.3346
03-Jul-2018,460.2256
04-Jul-2018,460.2894
05-Jul-2018,461.1485
06-Jul-2018,462.0297
09-Jul-2018,463.4745
10-Jul-2018,463.8085
11-Jul-2018,463.2666
12-Jul-2018,463.7173
13-Jul-2018,464.4378
16-Jul-2018,464.551
17-Jul-2018,464.4707
18-Jul-2018,464.8264
19-Jul-2018,464.9711
20-Jul-2018,465.2426
23-Jul-2018,465.4006
24-Jul-2018,465.6278
25-Jul-2018,466.1357
26-Jul-2018,467.0856
27-Jul-2018,467.4681
30-Jul-2018,467.6432
31-Jul-2018,467.8846
01-Aug-2018,467.5131
02-Aug-2018,466.9973
03-Aug-2018,467.5947
06-Aug-2018,467.8366
07-Aug-2018,467.9209
08-Aug-2018,467.5196
09-Aug-2018,466.8947
10-Aug-2018,464.7555
13-Aug-2018,462.2718
14-Aug-2018,463.4223
15-Aug-2018,463.0828
16-Aug-2018,464.2788
17-Aug-2018,464.2151
20-Aug-2018,464.5275
21-Aug-2018,465.1453
22-Aug-2018,465.6915
23-Aug-2018,465.5969
24-Aug-2018,465.607
27-Aug-2018,465.9092
28-Aug-2018,465.9429
29-Aug-2018,465.5515
30-Aug-2018,464.2617
31-Aug-2018,463.7327
03-Sep-2018,463.7306
04-Sep-2018,462.9059
05-Sep-2018,463.0043
06-Sep-2018,463.6808
07-Sep-2018,463.8114
10-Sep-2018,463.7985
11-Sep-2018,463.7464
12-Sep-2018,464.591
13-Sep-2018,465.9161
14-Sep-2018,466.4976
17-Sep-2018,466.9419
18-Sep-2018,466.909
19-Sep-2018,467.3945
20-Sep-2018,468.3409
21-Sep-2018,469.0523
24-Sep-2018,469.2407
25-Sep-2018,469.0803
26-Sep-2018,469.5872
27-Sep-2018,470.4575
28-Sep-2018,470.3493
01-Oct-2018,470.8183
02-Oct-2018,470.8038
03-Oct-2018,470.9055
04-Oct-2018,468.7293
05-Oct-2018,467.8567
08-Oct-2018,467.8073
09-Oct-2018,467.1031
10-Oct-2018,466.0731
11-Oct-2018,465.7869
12-Oct-2018,466.706
15-Oct-2018,467.2392
16-Oct-2018,468.03
17-Oct-2018,468.009
18-Oct-2018,467.0203
19-Oct-2018,466.5812
22-Oct-2018,466.7572
23-Oct-2018,465.3944
24-Oct-2018,465.5139
25-Oct-2018,464.7477
26-Oct-2018,464.0695
29-Oct-2018,464.3178
30-Oct-2018,463.5364
31-Oct-2018,463.9534
01-Nov-2018,464.6278
02-Nov-2018,465.513
05-Nov-2018,466.0553
06-Nov-2018,466.4808
07-Nov-2018,467.4309
08-Nov-2018,467.4428
09-Nov-2018,466.2213
12-Nov-2018,466.0879
13-Nov-2018,464.4481
14-Nov-2018,463.2174
15-Nov-2018,461.6946
16-Nov-2018,460.8935
19-Nov-2018,460.1517
20-Nov-2018,458.1204
21-Nov-2018,459.066
22-Nov-2018,459.1622
23-Nov-2018,458.5481
26-Nov-2018,458.749
27-Nov-2018,457.667
28-Nov-2018,458.9247
29-Nov-2018,459.5693
30-Nov-2018,459.7701
03-Dec-2018,461.9991
04-Dec-2018,461.2938
05-Dec-2018,461.0838
06-Dec-2018,459.0378
07-Dec-2018,460.0086
10-Dec-2018,459.034
11-Dec-2018,459.4973
12-Dec-2018,460.6848
13-Dec-2018,461.498
14-Dec-2018,461.0312
17-Dec-2018,460.5349
18-Dec-2018,459.4042
19-Dec-2018,459.0261
20-Dec-2018,455.5782
21-Dec-2018,454.7665
24-Dec-2018,454.1279
25-Dec-2018,454.1279
26-Dec-2018,453.7286
27-Dec-2018,454.3373
28-Dec-2018,455.3871
31-Dec-2018,455.8972
02-Jan-2019,456.0219
03-Jan-2019,456.4136
04-Jan-2019,459.6231
07-Jan-2019,462.5452
08-Jan-2019,463.9785
09-Jan-2019,466.2738
10-Jan-2019,466.1777
11-Jan-2019,466.6851
14-Jan-2019,466.4344
15-Jan-2019,467.2581
16-Jan-2019,468.743
17-Jan-2019,468.942
18-Jan-2019,470.6595
21-Jan-2019,470.7434
22-Jan-2019,470.4233
23-Jan-2019,471.1074
24-Jan-2019,471.6434
25-Jan-2019,472.4407
28-Jan-2019,471.9692
29-Jan-2019,471.9922
30-Jan-2019,472.678
31-Jan-2019,475.5625
01-Feb-2019,475.9749
04-Feb-2019,476.3671
05-Feb-2019,477.8974
06-Feb-2019,478.21
07-Feb-2019,476.9425
08-Feb-2019,476.263
11-Feb-2019,476.2254
12-Feb-2019,477.3726
13-Feb-2019,478.0391
14-Feb-2019,478.0345
15-Feb-2019,478.4629
18-Feb-2019,478.6113
19-Feb-2019,479.1836
20-Feb-2019,479.5269
21-Feb-2019,479.8767
22-Feb-2019,480.3938
25-Feb-2019,481.419
26-Feb-2019,482.0056
27-Feb-2019,482.5151
28-Feb-2019,482.7956
01-Mar-2019,482.5106
04-Mar-2019,482.5634
05-Mar-2019,482.2552
06-Mar-2019,482.0468
07-Mar-2019,481.3139
08-Mar-2019,480.2493
11-Mar-2019,481.4367
12-Mar-2019,482.5542
13-Mar-2019,483.1852
14-Mar-2019,483.7406
15-Mar-2019,484.4563
18-Mar-2019,485.1034
19-Mar-2019,485.6555
20-Mar-2019,485.8011
21-Mar-2019,486.5155
22-Mar-2019,485.4688
25-Mar-2019,484.9539
26-Mar-2019,485.621
27-Mar-2019,485.0648
28-Mar-2019,485.1134
29-Mar-2019,486.4486
01-Apr-2019,487.6689
02-Apr-2019,487.8378
03-Apr-2019,488.5245
04-Apr-2019,488.5529
05-Apr-2019,489.0227
08-Apr-2019,489.0586
09-Apr-2019,489.3093
10-Apr-2019,489.5203
11-Apr-2019,489.6792
12-Apr-2019,490.0734
15-Apr-2019,490.476
16-Apr-2019,490.882
17-Apr-2019,490.9468
18-Apr-2019,490.6273
19-Apr-2019,490.6273
22-Apr-2019,490.5767
23-Apr-2019,491.0921
24-Apr-2019,490.6839
25-Apr-2019,489.8089
26-Apr-2019,490.0533
29-Apr-2019,490.5611
30-Apr-2019,490.9004
01-May-2019,491.2724
02-May-2019,490.807
03-May-2019,491.3117
06-May-2019,491.2673
07-May-2019,490.7448
08-May-2019,490.3415
09-May-2019,489.1987
10-May-2019,489.2969
13-May-2019,487.6262
14-May-2019,488.1484
15-May-2019,488.2397
16-May-2019,489.0584
17-May-2019,488.9169
20-May-2019,489.0744
21-May-2019,489.8787
22-May-2019,489.8293
23-May-2019,488.5599
24-May-2019,488.7749
27-May-2019,488.7749
28-May-2019,488.8688
29-May-2019,487.6672
30-May-2019,488.2478
31-May-2019,486.7639
03-Jun-2019,486.394
04-Jun-2019,487.9619
05-Jun-2019,489.1472
06-Jun-2019,489.8366
07-Jun-2019,491.4313
10-Jun-2019,492.8049
11-Jun-2019,493.5191
12-Jun-2019,493.7902
13-Jun-2019,494.0108
14-Jun-2019,493.9384
17-Jun-2019,494.0808
18-Jun-2019,495.9072
19-Jun-2019,497.1517
20-Jun-2019,500.3445
21-Jun-2019,499.7818
24-Jun-2019,500.0921
25-Jun-2019,499.4455
26-Jun-2019,499.2876
27-Jun-2019,499.8203
28-Jun-2019,500.7311
01-Jul-2019,502.3616
02-Jul-2019,502.5055
03-Jul-2019,503.1867
04-Jul-2019,503.2773
05-Jul-2019,503.0721
08-Jul-2019,502.4153
09-Jul-2019,501.8518
10-Jul-2019,502.2342
11-Jul-2019,502.12
12-Jul-2019,502.1571
15-Jul-2019,502.7488
16-Jul-2019,502.7727
17-Jul-2019,502.7323
18-Jul-2019,502.0092
19-Jul-2019,502.3261
22-Jul-2019,502.8163
23-Jul-2019,503.5916
24-Jul-2019,504.2303
25-Jul-2019,504.5884
26-Jul-2019,504.9566
29-Jul-2019,505.2049
30-Jul-2019,504.6999
31-Jul-2019,505.0982
01-Aug-2019,504.6679
02-Aug-2019,503.3057
05-Aug-2019,500.0606
06-Aug-2019,500.5266
07-Aug-2019,500.2301
08-Aug-2019,502.0101
09-Aug-2019,502.2121
12-Aug-2019,497.8982
13-Aug-2019,496.7501
14-Aug-2019,494.3812
15-Aug-2019,494.5654
16-Aug-2019,495.8135
19-Aug-2019,496.009
20-Aug-2019,496.3317
21-Aug-2019,497.7977
22-Aug-2019,498.6326
23-Aug-2019,498.4654
26-Aug-2019,498.4859
27-Aug-2019,498.4672
28-Aug-2019,498.3532
29-Aug-2019,498.4137
30-Aug-2019,498.2785
02-Sep-2019,498.2633
03-Sep-2019,498.1303
04-Sep-2019,499.6707
05-Sep-2019,500.74
06-Sep-2019,501.4475
09-Sep-2019,502.141
10-Sep-2019,501.6998
11-Sep-2019,501.6711
12-Sep-2019,502.3008
13-Sep-2019,501.5494
16-Sep-2019,502.0884
17-Sep-2019,502.1354
18-Sep-2019,502.6278
19-Sep-2019,502.7362
20-Sep-2019,503.0717
23-Sep-2019,502.8908
24-Sep-2019,502.3371
25-Sep-2019,501.2282
26-Sep-2019,501.3569
27-Sep-2019,501.4525
30-Sep-2019,501.4491
01-Oct-2019,501.2825
02-Oct-2019,499.7668
03-Oct-2019,499.5224
04-Oct-2019,500.1391
07-Oct-2019,500.5606
08-Oct-2019,499.8392
09-Oct-2019,500.1108
10-Oct-2019,500.5809
11-Oct-2019,501.5406
14-Oct-2019,501.5638
15-Oct-2019,502.3131
16-Oct-2019,502.4284
17-Oct-2019,502.9396
18-Oct-2019,503.0041
21-Oct-2019,503.085
22-Oct-2019,503.3293
23-Oct-2019,503.6223
24-Oct-2019,504.0285
25-Oct-2019,504.4067
28-Oct-2019,504.4669
29-Oct-2019,504.3633
30-Oct-2019,503.7437
31-Oct-2019,503.5583
01-Nov-2019,504.3068
04-Nov-2019,505.4092
05-Nov-2019,505.0748
06-Nov-2019,504.9495
07-Nov-2019,505.1037
08-Nov-2019,504.6438
11-Nov-2019,504.6512
12-Nov-2019,504.5938
13-Nov-2019,504.0557
14-Nov-2019,504.2478
15-Nov-2019,504.3495
18-Nov-2019,503.795
19-Nov-2019,503.0953
20-Nov-2019,502.8175
21-Nov-2019,502.753
22-Nov-2019,503.1365
25-Nov-2019,503.8548
26-Nov-2019,504.6085
27-Nov-2019,504.8319
28-Nov-2019,504.902
29-Nov-2019,505.0087
02-Dec-2019,504.3895
03-Dec-2019,503.8871
04-Dec-2019,504.8279
05-Dec-2019,505.3942
06-Dec-2019,506.3013
09-Dec-2019,507.2488
10-Dec-2019,507.7804
11-Dec-2019,508.4884
12-Dec-2019,509.7083
13-Dec-2019,511.0312
16-Dec-2019,511.913
17-Dec-2019,513.2855
18-Dec-2019,514.4549
19-Dec-2019,514.5394
20-Dec-2019,514.8589
23-Dec-2019,515.3773
24-Dec-2019,515.6756
25-Dec-2019,515.6756
26-Dec-2019,515.9315
27-Dec-2019,516.5147
30-Dec-2019,516.6408
31-Dec-2019,516.6972
02-Jan-2020,517.5055
03-Jan-2020,517.5295
06-Jan-2020,517.5205
07-Jan-2020,518.0875
08-Jan-2020,518.2588
09-Jan-2020,518.899
10-Jan-2020,519.4144
13-Jan-2020,519.8593
14-Jan-2020,520.0974
15-Jan-2020,520.6066
16-Jan-2020,521.2417
17-Jan-2020,521.3736
20-Jan-2020,521.4635
21-Jan-2020,521.2199
22-Jan-2020,521.1498
23-Jan-2020,520.3801
24-Jan-2020,519.6737
27-Jan-2020,517.3001
28-Jan-2020,518.7928
29-Jan-2020,519.3917
30-Jan-2020,518.4613
31-Jan-2020,518.5737
03-Feb-2020,518.8566
04-Feb-2020,520.0087
05-Feb-2020,521.2048
06-Feb-2020,522.0521
07-Feb-2020,521.8056
10-Feb-2020,521.4549
11-Feb-2020,522.469
12-Feb-2020,523.1055
13-Feb-2020,523.1157
14-Feb-2020,523.6504
17-Feb-2020,523.7238
18-Feb-2020,523.8906
19-Feb-2020,524.3422
20-Feb-2020,524.3708
21-Feb-2020,524.3142
24-Feb-2020,521.1915
25-Feb-2020,519.9244
26-Feb-2020,518.4993
27-Feb-2020,514.2055
28-Feb-2020,510.2308
02-Mar-2020,511.7672
03-Mar-2020,515.2831
04-Mar-2020,517.628
05-Mar-2020,514.8801
06-Mar-2020,508.7351
09-Mar-2020,491.0404
10-Mar-2020,490.1208
11-Mar-2020,483.822
12-Mar-2020,466.8694
13-Mar-2020,466.0385
16-Mar-2020,451.344
17-Mar-2020,444.718
18-Mar-2020,429.4881
19-Mar-2020,419.3151
20-Mar-2020,419.5248
23-Mar-2020,411.8132
24-Mar-2020,414.5186
25-Mar-2020,423.5641
26-Mar-2020,434.0165
27-Mar-2020,438.0657
30-Mar-2020,438.4381
31-Mar-2020,441.6207
01-Apr-2020,437.6321
02-Apr-2020,436.9401
03-Apr-2020,435.5458
06-Apr-2020,436.5332
07-Apr-2020,442.1979
08-Apr-2020,443.7794
09-Apr-2020,454.5329
10-Apr-2020,454.5329
13-Apr-2020,459.0034
14-Apr-2020,464.4611
15-Apr-2020,462.8674
16-Apr-2020,462.5556
17-Apr-2020,464.5791
20-Apr-2020,463.4262
21-Apr-2020,457.8442
22-Apr-2020,457.499
23-Apr-2020,457.7255
24-Apr-2020,456.5578
27-Apr-2020,456.5904
28-Apr-2020,457.1499
29-Apr-2020,458.9823
30-Apr-2020,460.9933
01-May-2020,460.6496
04-May-2020,459.2884
05-May-2020,461.9728
06-May-2020,462.0909
07-May-2020,463.5037
08-May-2020,464.4177
11-May-2020,465.9919
12-May-2020,467.8941
13-May-2020,465.9759
14-May-2020,463.5031
15-May-2020,464.2468
18-May-2020,468.6822
19-May-2020,470.5381
20-May-2020,474.0854
21-May-2020,476.3832
22-May-2020,476.2306
25-May-2020,476.2306
26-May-2020,480.2594
27-May-2020,482.0805
28-May-2020,483.5518
29-May-2020,483.5853
01-Jun-2020,485.3151
02-Jun-2020,488.6382
03-Jun-2020,493.5281
04-Jun-2020,494.5805
05-Jun-2020,499.6323
08-Jun-2020,502.4683
09-Jun-2020,500.8848
10-Jun-2020,499.8576
11-Jun-2020,493.9076
12-Jun-2020,494.4027
15-Jun-2020,493.6596
16-Jun-2020,499.553
17-Jun-2020,499.6203
18-Jun-2020,498.2348
19-Jun-2020,498.5736
22-Jun-2020,498.4103
23-Jun-2020,499.1366
24-Jun-2020,497.2361
25-Jun-2020,495.7451
26-Jun-2020,494.9269
29-Jun-2020,493.522
30-Jun-2020,493.8946
01-Jul-2020,495.0372
02-Jul-2020,497.0851
03-Jul-2020,497.1449
06-Jul-2020,499.6571
07-Jul-2020,499.9791
08-Jul-2020,499.6141
09-Jul-2020,498.9996
10-Jul-2020,498.3295
13-Jul-2020,499.568
14-Jul-2020,498.8804
15-Jul-2020,501.1062
16-Jul-2020,501.756
17-Jul-2020,502.518
20-Jul-2020,504.4047
21-Jul-2020,507.4306
22-Jul-2020,508.9122
23-Jul-2020,509.7184
24-Jul-2020,509.5714
27-Jul-2020,510.1953
28-Jul-2020,509.9527
29-Jul-2020,510.9159
30-Jul-2020,511.016
31-Jul-2020,511.7643
03-Aug-2020,512.6478
04-Aug-2020,513.453
05-Aug-2020,514.8017
06-Aug-2020,515.1247
07-Aug-2020,515.5135
10-Aug-2020,516.1746
11-Aug-2020,517.3287
12-Aug-2020,517.3361
13-Aug-2020,516.7128
14-Aug-2020,515.6029
17-Aug-2020,515.4226
18-Aug-2020,515.376
19-Aug-2020,515.6717
20-Aug-2020,515.3953
21-Aug-2020,515.713
24-Aug-2020,516.8094
25-Aug-2020,517.5115
26-Aug-2020,517.68
27-Aug-2020,518.0426
28-Aug-2020,518.6283
31-Aug-2020,519.0447
01-Sep-2020,520.1329
02-Sep-2020,521.5509
03-Sep-2020,521.1451
04-Sep-2020,519.9296
07-Sep-2020,519.9744
08-Sep-2020,518.754
09-Sep-2020,518.9986
10-Sep-2020,519.3675
11-Sep-2020,519.0054
14-Sep-2020,518.8157
15-Sep-2020,519.4452
16-Sep-2020,519.8821
17-Sep-2020,519.1973
18-Sep-2020,518.7534
21-Sep-2020,515.1227
22-Sep-2020,513.8281
23-Sep-2020,512.6787
24-Sep-2020,510.4027
25-Sep-2020,509.6704
28-Sep-2020,510.8554
29-Sep-2020,509.9112
30-Sep-2020,511.4287
01-Oct-2020,512.1854
02-Oct-2020,511.9024
05-Oct-2020,513.8057
06-Oct-2020,515.5038
07-Oct-2020,515.6701
08-Oct-2020,516.9473
09-Oct-2020,518.208
12-Oct-2020,518.3615
13-Oct-2020,519.0401
14-Oct-2020,518.2293
15-Oct-2020,516.5274
16-Oct-2020,517.1916
19-Oct-2020,517.5078
20-Oct-2020,517.1992
21-Oct-2020,517.1394
22-Oct-2020,516.8809
23-Oct-2020,517.1972
26-Oct-2020,516.259
27-Oct-2020,516.2311
28-Oct-2020,513.4048
29-Oct-2020,512.8551
30-Oct-2020,512.4263
02-Nov-2020,513.2834
03-Nov-2020,515.7125
04-Nov-2020,519.6534
05-Nov-2020,523.3045
06-Nov-2020,523.1679
09-Nov-2020,528.8009
10-Nov-2020,528.3516
11-Nov-2020,528.4655
12-Nov-2020,528.1114
13-Nov-2020,528.0229
16-Nov-2020,529.8034
17-Nov-2020,530.0866
18-Nov-2020,530.8573
19-Nov-2020,531.004
20-Nov-2020,531.4596
23-Nov-2020,532.3415
24-Nov-2020,534.191
25-Nov-2020,534.6226
26-Nov-2020,534.679
27-Nov-2020,535.1646
30-Nov-2020,535.376
01-Dec-2020,536.5872
02-Dec-2020,537.3519
03-Dec-2020,538.8076
04-Dec-2020,540.0254
07-Dec-2020,540.4605
08-Dec-2020,540.61
09-Dec-2020,540.7246
10-Dec-2020,541.0833
11-Dec-2020,541.1418
14-Dec-2020,541.8351
15-Dec-2020,542.2211
16-Dec-2020,542.698
17-Dec-2020,543.3737
18-Dec-2020,543.7169
21-Dec-2020,542.7734
22-Dec-2020,543.1388
23-Dec-2020,543.6331
24-Dec-2020,543.9465
25-Dec-2020,543.9465
28-Dec-2020,545.1948
29-Dec-2020,545.6992
30-Dec-2020,546.0729
31-Dec-2020,546.3192
04-Jan-2021,546.8157
05-Jan-2021,546.523
06-Jan-2021,546.5279
07-Jan-2021,546.7594
08-Jan-2021,546.999
11-Jan-2021,546.1244
12-Jan-2021,544.7896
13-Jan-2021,545.2419
14-Jan-2021,545.671
15-Jan-2021,545.5594
18-Jan-2021,545.5135
19-Jan-2021,546.0228
20-Jan-2021,546.8978
21-Jan-2021,547.2683
22-Jan-2021,546.7316
25-Jan-2021,546.899
26-Jan-2021,546.9162
27-Jan-2021,545.8584
28-Jan-2021,546.2301
29-Jan-2021,546.1431
01-Feb-2021,546.8469
02-Feb-2021,547.9643
03-Feb-2021,548.7862
04-Feb-2021,549.6678
05-Feb-2021,550.6694
08-Feb-2021,550.9873
09-Feb-2021,550.8694
10-Feb-2021,551.148
11-Feb-2021,551.4893
12-Feb-2021,551.3732
15-Feb-2021,551.4447
16-Feb-2021,550.8851
17-Feb-2021,550.5943
18-Feb-2021,550.6931
19-Feb-2021,550.4792
22-Feb-2021,549.2469
23-Feb-2021,549.2979
24-Feb-2021,549.3991
25-Feb-2021,547.5302
26-Feb-2021,546.8677
01-Mar-2021,548.1573
02-Mar-2021,548.3365
03-Mar-2021,547.5897
04-Mar-2021,546.3232
05-Mar-2021,544.972
08-Mar-2021,543.0675
09-Mar-2021,543.1684
10-Mar-2021,543.7857
11-Mar-2021,546.0024
12-Mar-2021,544.9598
15-Mar-2021,545.2603
16-Mar-2021,545.8582
17-Mar-2021,545.2667
18-Mar-2021,544.2718
19-Mar-2021,544.363
22-Mar-2021,544.316
23-Mar-2021,544.665
24-Mar-2021,545.0979
25-Mar-2021,544.8521
26-Mar-2021,544.709
29-Mar-2021,544.7809
30-Mar-2021,544.1689
31-Mar-2021,545.1408
01-Apr-2021,546.4899
02-Apr-2021,546.3732
05-Apr-2021,547.2103
06-Apr-2021,548.3709
07-Apr-2021,548.8816
08-Apr-2021,549.5568
09-Apr-2021,549.431
12-Apr-2021,549.885
13-Apr-2021,549.7192
14-Apr-2021,550.2573
15-Apr-2021,551.4467
16-Apr-2021,552.0974
19-Apr-2021,552.3825
20-Apr-2021,551.6195
21-Apr-2021,551.6427
22-Apr-2021,552.0798
23-Apr-2021,552.3576
26-Apr-2021,552.5915
27-Apr-2021,552.5439
28-Apr-2021,552.5181
29-Apr-2021,552.8754
30-Apr-2021,553.1867
03-May-2021,553.4613
04-May-2021,553.4812
05-May-2021,554.0704
06-May-2021,554.4752
07-May-2021,555.162
10-May-2021,555.5564
11-May-2021,554.4665
12-May-2021,553.4696
13-May-2021,553.1822
14-May-2021,554.0967
17-May-2021,554.4835
18-May-2021,554.6785
19-May-2021,553.6273
20-May-2021,554.0405
21-May-2021,554.4358
24-May-2021,554.9387
25-May-2021,555.5894
26-May-2021,556.0842
27-May-2021,556.1828
28-May-2021,556.5102
31-May-2021,556.5663
01-Jun-2021,557.0279
02-Jun-2021,557.8662
03-Jun-2021,557.5521
04-Jun-2021,558.0129
07-Jun-2021,558.5379
08-Jun-2021,559.4085
09-Jun-2021,560.4585
10-Jun-2021,560.6952
11-Jun-2021,561.254
