formattedEffectiveDate,indexValue
14-Jun-2016,230.2307
15-Jun-2016,230.4425
16-Jun-2016,230.6429
17-Jun-2016,230.0837
20-Jun-2016,229.8976
21-Jun-2016,229.7661
22-Jun-2016,229.8976
23-Jun-2016,229.6035
24-Jun-2016,230.1341
27-Jun-2016,231.3043
28-Jun-2016,231.476
29-Jun-2016,231.7578
30-Jun-2016,231.8787
01-Jul-2016,232.6426
04-Jul-2016,232.7787
05-Jul-2016,234.0204
06-Jul-2016,233.8382
07-Jul-2016,234.1362
08-Jul-2016,234.702
11-Jul-2016,234.474
12-Jul-2016,234.0233
13-Jul-2016,234.8579
14-Jul-2016,234.2987
15-Jul-2016,233.6891
18-Jul-2016,233.9073
19-Jul-2016,234.2079
20-Jul-2016,234.0088
21-Jul-2016,234.229
22-Jul-2016,234.3464
25-Jul-2016,234.3815
26-Jul-2016,234.2775
27-Jul-2016,234.8891
28-Jul-2016,234.8155
29-Jul-2016,235.3835
01-Aug-2016,234.8027
02-Aug-2016,234.0649
03-Aug-2016,233.9948
04-Aug-2016,234.9322
05-Aug-2016,234.4215
08-Aug-2016,234.7555
09-Aug-2016,235.3828
10-Aug-2016,235.9574
11-Aug-2016,235.2891
12-Aug-2016,235.9007
15-Aug-2016,235.475
16-Aug-2016,235.2554
17-Aug-2016,235.5488
18-Aug-2016,235.9196
19-Aug-2016,235.5149
22-Aug-2016,236.0877
23-Aug-2016,236.1746
24-Aug-2016,236.1484
25-Aug-2016,235.9085
26-Aug-2016,235.4938
29-Aug-2016,236.2521
30-Aug-2016,236.1631
31-Aug-2016,236.0969
01-Sep-2016,236.025
02-Sep-2016,235.5918
05-Sep-2016,235.6549
06-Sep-2016,236.3351
07-Sep-2016,236.3491
08-Sep-2016,235.2511
09-Sep-2016,234.3223
12-Sep-2016,234.0213
13-Sep-2016,233.3266
14-Sep-2016,233.7189
15-Sep-2016,233.6035
16-Sep-2016,233.6804
19-Sep-2016,233.7863
20-Sep-2016,234.0722
21-Sep-2016,234.2525
22-Sep-2016,235.1011
23-Sep-2016,235.3429
26-Sep-2016,235.5729
27-Sep-2016,235.9547
28-Sep-2016,235.8784
29-Sep-2016,235.9493
30-Sep-2016,235.3325
03-Oct-2016,235.2629
04-Oct-2016,234.6498
05-Oct-2016,234.2565
06-Oct-2016,234.1134
07-Oct-2016,234.1165
10-Oct-2016,233.9809
11-Oct-2016,233.8913
12-Oct-2016,233.6569
13-Oct-2016,234.2014
14-Oct-2016,233.7105
17-Oct-2016,234.0632
18-Oct-2016,234.3809
19-Oct-2016,234.5148
20-Oct-2016,234.6305
21-Oct-2016,234.6334
24-Oct-2016,234.3774
25-Oct-2016,234.4127
26-Oct-2016,233.7729
27-Oct-2016,233.0303
28-Oct-2016,232.9108
31-Oct-2016,233.0751
01-Nov-2016,233.0071
02-Nov-2016,233.1968
03-Nov-2016,232.9399
04-Nov-2016,233.2579
07-Nov-2016,232.9609
08-Nov-2016,232.6297
09-Nov-2016,230.6561
10-Nov-2016,230.2224
11-Nov-2016,230.07
14-Nov-2016,228.7644
15-Nov-2016,228.9068
16-Nov-2016,228.9652
17-Nov-2016,228.4741
18-Nov-2016,227.6355
21-Nov-2016,227.6974
22-Nov-2016,227.9553
23-Nov-2016,227.5468
24-Nov-2016,227.6404
25-Nov-2016,227.6078
28-Nov-2016,228.1651
29-Nov-2016,228.3854
30-Nov-2016,227.8275
01-Dec-2016,227.0597
02-Dec-2016,227.6621
05-Dec-2016,227.665
06-Dec-2016,227.5347
07-Dec-2016,228.1954
08-Dec-2016,227.8141
09-Dec-2016,227.2054
12-Dec-2016,227.1067
13-Dec-2016,227.4251
14-Dec-2016,227.2799
15-Dec-2016,226.6302
16-Dec-2016,226.675
19-Dec-2016,227.4497
20-Dec-2016,227.2451
21-Dec-2016,227.6432
22-Dec-2016,227.6511
23-Dec-2016,227.8643
26-Dec-2016,227.834
27-Dec-2016,227.6927
28-Dec-2016,228.3574
29-Dec-2016,228.7317
30-Dec-2016,229.0798
03-Jan-2017,228.9525
04-Jan-2017,229.1059
05-Jan-2017,229.9274
06-Jan-2017,229.2933
09-Jan-2017,229.7344
10-Jan-2017,229.6685
11-Jan-2017,229.7853
12-Jan-2017,229.9184
13-Jan-2017,229.6587
16-Jan-2017,229.7062
17-Jan-2017,230.2963
18-Jan-2017,229.5991
19-Jan-2017,228.9024
20-Jan-2017,228.7978
23-Jan-2017,229.5728
24-Jan-2017,228.9467
25-Jan-2017,228.329
26-Jan-2017,228.4559
27-Jan-2017,228.8112
30-Jan-2017,228.7751
31-Jan-2017,228.9954
01-Feb-2017,228.7061
02-Feb-2017,228.9187
03-Feb-2017,228.7951
06-Feb-2017,229.6411
07-Feb-2017,229.9349
08-Feb-2017,230.4743
09-Feb-2017,229.9629
10-Feb-2017,229.8208
13-Feb-2017,229.7089
14-Feb-2017,229.4318
15-Feb-2017,229.1773
16-Feb-2017,229.7607
17-Feb-2017,230.0998
20-Feb-2017,230.1177
21-Feb-2017,230.0962
22-Feb-2017,230.4308
23-Feb-2017,230.8896
24-Feb-2017,231.7722
27-Feb-2017,231.3992
28-Feb-2017,231.566
01-Mar-2017,230.4658
02-Mar-2017,230.2188
03-Mar-2017,230.1936
06-Mar-2017,230.2387
07-Mar-2017,230.0468
08-Mar-2017,229.3021
09-Mar-2017,228.6174
10-Mar-2017,228.5869
13-Mar-2017,228.392
14-Mar-2017,228.4488
15-Mar-2017,229.4243
16-Mar-2017,229.314
17-Mar-2017,229.5104
20-Mar-2017,229.8493
21-Mar-2017,230.1399
22-Mar-2017,230.592
23-Mar-2017,230.361
24-Mar-2017,230.5992
27-Mar-2017,230.8186
28-Mar-2017,230.5804
29-Mar-2017,230.9838
30-Mar-2017,230.7615
31-Mar-2017,230.9231
03-Apr-2017,231.5896
04-Apr-2017,231.5735
05-Apr-2017,231.569
06-Apr-2017,231.6542
07-Apr-2017,231.522
10-Apr-2017,231.7472
11-Apr-2017,232.4279
12-Apr-2017,232.4229
13-Apr-2017,232.9854
14-Apr-2017,232.9787
17-Apr-2017,232.7893
18-Apr-2017,233.471
19-Apr-2017,233.163
20-Apr-2017,232.7007
21-Apr-2017,232.8523
24-Apr-2017,232.4193
25-Apr-2017,231.9546
26-Apr-2017,232.2637
27-Apr-2017,232.5784
28-Apr-2017,232.7394
01-May-2017,232.3503
02-May-2017,232.6904
03-May-2017,232.7323
04-May-2017,232.2566
05-May-2017,232.2713
08-May-2017,232.1155
09-May-2017,231.9188
10-May-2017,232.0769
11-May-2017,232.196
12-May-2017,232.9378
15-May-2017,232.8881
16-May-2017,233.021
17-May-2017,234.0981
18-May-2017,233.8003
19-May-2017,233.7402
22-May-2017,233.7154
23-May-2017,233.4407
24-May-2017,233.5628
25-May-2017,233.7936
26-May-2017,233.9339
29-May-2017,233.9086
30-May-2017,234.376
31-May-2017,234.5417
01-Jun-2017,234.35
02-Jun-2017,234.9977
05-Jun-2017,234.7638
06-Jun-2017,235.2021
07-Jun-2017,234.935
08-Jun-2017,234.7029
09-Jun-2017,234.6921
12-Jun-2017,234.6152
13-Jun-2017,234.6189
14-Jun-2017,235.6049
15-Jun-2017,235.176
16-Jun-2017,235.3396
19-Jun-2017,235.1906
20-Jun-2017,235.6811
21-Jun-2017,235.6919
22-Jun-2017,235.7281
23-Jun-2017,235.8438
26-Jun-2017,236.0569
27-Jun-2017,235.3118
28-Jun-2017,235.056
29-Jun-2017,234.4679
30-Jun-2017,234.1977
03-Jul-2017,233.8749
04-Jul-2017,233.9626
05-Jul-2017,234.1696
06-Jul-2017,233.6258
07-Jul-2017,233.4562
10-Jul-2017,233.8222
11-Jul-2017,233.8769
12-Jul-2017,234.4189
13-Jul-2017,234.2061
14-Jul-2017,234.4587
17-Jul-2017,234.7634
18-Jul-2017,235.3373
19-Jul-2017,235.4606
20-Jul-2017,235.538
21-Jul-2017,236.0052
24-Jul-2017,235.8059
25-Jul-2017,234.9399
26-Jul-2017,235.4128
27-Jul-2017,235.2924
28-Jul-2017,235.5236
31-Jul-2017,235.4831
01-Aug-2017,236.118
02-Aug-2017,236.0659
03-Aug-2017,236.4686
04-Aug-2017,236.001
07-Aug-2017,236.0969
08-Aug-2017,235.6596
09-Aug-2017,235.9419
10-Aug-2017,236.0464
11-Aug-2017,236.0236
14-Aug-2017,235.9208
15-Aug-2017,235.5345
16-Aug-2017,235.9432
17-Aug-2017,236.1922
18-Aug-2017,236.2041
21-Aug-2017,236.3549
22-Aug-2017,236.067
23-Aug-2017,236.5219
24-Aug-2017,236.3105
25-Aug-2017,236.5212
28-Aug-2017,236.6123
29-Aug-2017,236.8264
30-Aug-2017,236.6998
31-Aug-2017,236.9363
01-Sep-2017,236.5277
04-Sep-2017,236.5375
05-Sep-2017,237.4504
06-Sep-2017,236.9506
07-Sep-2017,237.4896
08-Sep-2017,237.297
11-Sep-2017,236.6892
12-Sep-2017,236.1821
13-Sep-2017,236.0435
14-Sep-2017,236.0702
15-Sep-2017,235.9992
18-Sep-2017,235.8729
19-Sep-2017,235.919
20-Sep-2017,235.8035
21-Sep-2017,235.7762
22-Sep-2017,235.9031
25-Sep-2017,236.4985
26-Sep-2017,236.4102
27-Sep-2017,235.6156
28-Sep-2017,235.7579
29-Sep-2017,235.9516
02-Oct-2017,236.0561
03-Oct-2017,236.2032
04-Oct-2017,236.2047
05-Oct-2017,236.019
06-Oct-2017,235.8892
09-Oct-2017,235.9336
10-Oct-2017,236.2613
11-Oct-2017,236.2248
12-Oct-2017,236.4201
13-Oct-2017,236.9669
16-Oct-2017,236.8877
17-Oct-2017,237.0828
18-Oct-2017,236.6463
19-Oct-2017,236.9009
20-Oct-2017,236.3261
23-Oct-2017,236.5897
24-Oct-2017,236.2549
25-Oct-2017,235.8547
26-Oct-2017,235.948
27-Oct-2017,236.4289
30-Oct-2017,237.1091
31-Oct-2017,237.0764
01-Nov-2017,237.1389
02-Nov-2017,237.4104
03-Nov-2017,237.4193
06-Nov-2017,237.6411
07-Nov-2017,237.6818
08-Nov-2017,237.4804
09-Nov-2017,236.9938
10-Nov-2017,236.0627
13-Nov-2017,236.0456
14-Nov-2017,236.1699
15-Nov-2017,236.4285
16-Nov-2017,236.2997
17-Nov-2017,236.485
20-Nov-2017,236.4891
21-Nov-2017,236.8106
22-Nov-2017,237.1918
23-Nov-2017,237.2101
24-Nov-2017,237.0988
27-Nov-2017,237.2359
28-Nov-2017,237.2399
29-Nov-2017,236.6847
30-Nov-2017,236.5316
01-Dec-2017,237.3497
04-Dec-2017,237.1361
05-Dec-2017,237.5143
06-Dec-2017,237.8076
07-Dec-2017,237.3184
08-Dec-2017,237.2716
11-Dec-2017,237.3741
12-Dec-2017,237.2561
13-Dec-2017,237.8425
14-Dec-2017,237.9806
15-Dec-2017,238.0882
18-Dec-2017,237.6839
19-Dec-2017,236.7734
20-Dec-2017,236.2516
21-Dec-2017,236.5142
22-Dec-2017,236.4768
25-Dec-2017,236.44
26-Dec-2017,236.7239
27-Dec-2017,237.4795
28-Dec-2017,237.2463
29-Dec-2017,237.4543
02-Jan-2018,236.675
03-Jan-2018,237.0541
04-Jan-2018,237.008
05-Jan-2018,236.8978
08-Jan-2018,236.9854
09-Jan-2018,236.3846
10-Jan-2018,236.4187
11-Jan-2018,236.5444
12-Jan-2018,236.5206
15-Jan-2018,236.5484
16-Jan-2018,236.7972
17-Jan-2018,236.5312
18-Jan-2018,236.1365
19-Jan-2018,235.877
22-Jan-2018,235.7317
23-Jan-2018,236.0998
24-Jan-2018,235.7988
25-Jan-2018,236.2477
26-Jan-2018,235.9361
29-Jan-2018,235.5882
30-Jan-2018,235.3029
31-Jan-2018,235.4984
01-Feb-2018,235.0437
02-Feb-2018,234.1639
05-Feb-2018,234.5328
06-Feb-2018,234.5229
07-Feb-2018,233.8865
08-Feb-2018,233.4145
09-Feb-2018,233.1394
12-Feb-2018,232.9753
13-Feb-2018,232.6438
14-Feb-2018,232.0483
15-Feb-2018,232.4437
16-Feb-2018,232.8044
19-Feb-2018,232.7238
20-Feb-2018,232.5724
21-Feb-2018,232.096
22-Feb-2018,232.3008
23-Feb-2018,232.6987
26-Feb-2018,232.8649
27-Feb-2018,232.362
28-Feb-2018,232.7156
01-Mar-2018,232.9695
02-Mar-2018,232.3546
05-Mar-2018,232.1953
06-Mar-2018,232.2459
07-Mar-2018,232.1213
08-Mar-2018,232.348
09-Mar-2018,231.9779
12-Mar-2018,232.1556
13-Mar-2018,232.2635
14-Mar-2018,232.5388
15-Mar-2018,232.3018
16-Mar-2018,232.1706
19-Mar-2018,232.07
20-Mar-2018,231.545
21-Mar-2018,231.1859
22-Mar-2018,231.7933
23-Mar-2018,231.575
26-Mar-2018,231.4815
27-Mar-2018,232.089
28-Mar-2018,232.2146
29-Mar-2018,232.6789
30-Mar-2018,232.6652
02-Apr-2018,232.741
03-Apr-2018,232.2521
04-Apr-2018,232.2141
05-Apr-2018,231.937
06-Apr-2018,232.5875
09-Apr-2018,232.5903
10-Apr-2018,232.5291
11-Apr-2018,232.7381
12-Apr-2018,232.3543
13-Apr-2018,232.461
16-Apr-2018,232.4713
17-Apr-2018,232.7405
18-Apr-2018,232.1347
19-Apr-2018,231.3292
20-Apr-2018,230.9517
23-Apr-2018,230.6828
24-Apr-2018,230.4885
25-Apr-2018,229.9894
26-Apr-2018,230.3708
27-Apr-2018,230.8103
30-Apr-2018,230.9874
01-May-2018,230.4801
02-May-2018,230.4198
03-May-2018,230.6138
04-May-2018,230.4762
07-May-2018,230.4351
08-May-2018,230.1785
09-May-2018,229.9398
10-May-2018,230.3819
11-May-2018,230.5197
14-May-2018,230.2829
15-May-2018,229.3076
16-May-2018,229.205
17-May-2018,228.8937
18-May-2018,229.3496
21-May-2018,229.4034
22-May-2018,229.2692
23-May-2018,229.7926
24-May-2018,230.1575
25-May-2018,230.571
28-May-2018,230.5343
29-May-2018,231.8581
30-May-2018,230.9347
31-May-2018,231.2379
01-Jun-2018,230.5521
04-Jun-2018,230.271
05-Jun-2018,230.459
06-Jun-2018,229.619
07-Jun-2018,229.931
08-Jun-2018,229.8909
11-Jun-2018,229.6174
12-Jun-2018,229.705
13-Jun-2018,229.6317
14-Jun-2018,230.1657
15-Jun-2018,230.398
18-Jun-2018,230.2217
19-Jun-2018,230.3566
20-Jun-2018,229.9605
21-Jun-2018,229.9634
22-Jun-2018,229.8349
25-Jun-2018,229.8937
26-Jun-2018,229.7854
27-Jun-2018,230.2672
28-Jun-2018,229.9461
29-Jun-2018,230.0053
02-Jul-2018,229.8938
03-Jul-2018,230.2673
04-Jul-2018,230.2014
05-Jul-2018,230.4398
06-Jul-2018,230.7149
09-Jul-2018,230.6695
10-Jul-2018,230.7039
11-Jul-2018,230.9239
12-Jul-2018,231.0619
13-Jul-2018,231.3962
16-Jul-2018,231.1015
17-Jul-2018,231.0899
18-Jul-2018,231.0503
19-Jul-2018,231.3329
20-Jul-2018,230.7386
23-Jul-2018,230.0889
24-Jul-2018,230.5693
25-Jul-2018,230.7768
26-Jul-2018,230.6484
27-Jul-2018,230.9052
30-Jul-2018,230.6377
31-Jul-2018,230.9475
01-Aug-2018,230.4709
02-Aug-2018,230.6342
03-Aug-2018,231.1754
06-Aug-2018,231.459
07-Aug-2018,231.1221
08-Aug-2018,231.0354
09-Aug-2018,231.2611
10-Aug-2018,231.7902
13-Aug-2018,231.4719
14-Aug-2018,231.3689
15-Aug-2018,231.7949
16-Aug-2018,231.7287
17-Aug-2018,231.7703
20-Aug-2018,232.2785
21-Aug-2018,231.9649
22-Aug-2018,231.9663
23-Aug-2018,231.9774
24-Aug-2018,231.897
27-Aug-2018,231.7239
28-Aug-2018,231.2919
29-Aug-2018,231.1854
30-Aug-2018,231.4553
31-Aug-2018,231.4629
03-Sep-2018,231.43
04-Sep-2018,230.7888
05-Sep-2018,230.6322
06-Sep-2018,231.0828
07-Sep-2018,230.4422
10-Sep-2018,230.5896
11-Sep-2018,230.2416
12-Sep-2018,230.5443
13-Sep-2018,230.6535
14-Sep-2018,230.4312
17-Sep-2018,230.4223
18-Sep-2018,229.9034
19-Sep-2018,229.5963
20-Sep-2018,229.9263
21-Sep-2018,230.1407
24-Sep-2018,229.8449
25-Sep-2018,229.536
26-Sep-2018,230.0028
27-Sep-2018,230.1187
28-Sep-2018,230.2135
01-Oct-2018,230.0511
02-Oct-2018,230.3827
03-Oct-2018,229.3482
04-Oct-2018,228.7434
05-Oct-2018,228.3189
08-Oct-2018,228.3505
09-Oct-2018,228.5435
10-Oct-2018,228.1984
11-Oct-2018,228.9421
12-Oct-2018,228.8973
15-Oct-2018,228.6794
16-Oct-2018,228.7735
17-Oct-2018,228.6649
18-Oct-2018,228.6296
19-Oct-2018,228.2122
22-Oct-2018,228.24
23-Oct-2018,228.3072
24-Oct-2018,228.6059
25-Oct-2018,228.3935
26-Oct-2018,228.7812
29-Oct-2018,228.5727
30-Oct-2018,228.1611
31-Oct-2018,227.6938
01-Nov-2018,227.7272
02-Nov-2018,227.2638
05-Nov-2018,227.4937
06-Nov-2018,227.5632
07-Nov-2018,227.7665
08-Nov-2018,227.5706
09-Nov-2018,227.8915
12-Nov-2018,227.8747
13-Nov-2018,227.7418
14-Nov-2018,227.5407
15-Nov-2018,227.1048
16-Nov-2018,227.2835
19-Nov-2018,227.1812
20-Nov-2018,226.7734
21-Nov-2018,226.8542
22-Nov-2018,226.8678
23-Nov-2018,227.0127
26-Nov-2018,226.9126
27-Nov-2018,226.8017
28-Nov-2018,226.6654
29-Nov-2018,226.6672
30-Nov-2018,226.583
03-Dec-2018,227.0112
04-Dec-2018,227.4922
05-Dec-2018,227.3685
06-Dec-2018,227.432
07-Dec-2018,227.5921
10-Dec-2018,227.5985
11-Dec-2018,227.5981
12-Dec-2018,227.5423
13-Dec-2018,227.7903
14-Dec-2018,228.1325
17-Dec-2018,228.3464
18-Dec-2018,228.6286
19-Dec-2018,229.0526
20-Dec-2018,228.5052
21-Dec-2018,228.2057
24-Dec-2018,228.4517
25-Dec-2018,228.4362
26-Dec-2018,227.941
27-Dec-2018,228.2024
28-Dec-2018,228.1932
31-Dec-2018,228.5142
02-Jan-2019,228.8867
03-Jan-2019,229.5837
04-Jan-2019,228.5888
07-Jan-2019,228.6253
08-Jan-2019,228.4814
09-Jan-2019,228.8069
10-Jan-2019,228.6614
11-Jan-2019,228.9839
14-Jan-2019,228.8241
15-Jan-2019,228.9692
16-Jan-2019,229.0622
17-Jan-2019,229.1013
18-Jan-2019,229.2849
21-Jan-2019,229.3237
22-Jan-2019,229.9549
23-Jan-2019,229.9993
24-Jan-2019,230.6578
25-Jan-2019,230.5205
28-Jan-2019,230.6262
29-Jan-2019,230.9924
30-Jan-2019,231.2704
31-Jan-2019,232.3608
01-Feb-2019,232.1299
04-Feb-2019,231.9521
05-Feb-2019,232.5301
06-Feb-2019,232.6101
07-Feb-2019,232.9393
08-Feb-2019,233.1132
11-Feb-2019,232.8382
12-Feb-2019,232.6905
13-Feb-2019,232.6167
14-Feb-2019,232.9614
15-Feb-2019,233.0223
18-Feb-2019,233.0307
19-Feb-2019,233.2506
20-Feb-2019,233.1666
21-Feb-2019,232.6947
22-Feb-2019,233.1448
25-Feb-2019,233.137
26-Feb-2019,233.4229
27-Feb-2019,232.8378
28-Feb-2019,232.8171
01-Mar-2019,232.597
04-Mar-2019,233.0502
05-Mar-2019,233.0308
06-Mar-2019,233.3213
07-Mar-2019,233.9348
08-Mar-2019,233.7931
11-Mar-2019,233.7715
12-Mar-2019,234.333
13-Mar-2019,234.2475
14-Mar-2019,234.0697
15-Mar-2019,234.528
18-Mar-2019,234.6889
19-Mar-2019,234.6351
20-Mar-2019,235.2795
21-Mar-2019,235.5758
22-Mar-2019,236.5884
25-Mar-2019,236.899
26-Mar-2019,236.9855
27-Mar-2019,237.5933
28-Mar-2019,237.4831
29-Mar-2019,237.3559
01-Apr-2019,236.671
02-Apr-2019,236.9755
03-Apr-2019,236.5935
04-Apr-2019,236.7023
05-Apr-2019,236.8735
08-Apr-2019,236.7878
09-Apr-2019,237.0944
10-Apr-2019,237.4952
11-Apr-2019,237.3464
12-Apr-2019,237.0333
15-Apr-2019,237.2641
16-Apr-2019,236.9861
17-Apr-2019,236.9683
18-Apr-2019,237.3942
19-Apr-2019,237.3801
22-Apr-2019,237.0256
23-Apr-2019,237.2495
24-Apr-2019,237.9822
25-Apr-2019,237.9072
26-Apr-2019,238.2712
29-Apr-2019,237.9689
30-Apr-2019,238.2352
01-May-2019,238.306
02-May-2019,237.7383
03-May-2019,237.9326
06-May-2019,238.0844
07-May-2019,238.5659
08-May-2019,238.1155
09-May-2019,238.0394
10-May-2019,237.9997
13-May-2019,238.2484
14-May-2019,238.1543
15-May-2019,238.5845
16-May-2019,238.4684
17-May-2019,238.5881
20-May-2019,238.286
21-May-2019,238.0285
22-May-2019,238.266
23-May-2019,238.9226
24-May-2019,238.6211
27-May-2019,238.5758
28-May-2019,239.1597
29-May-2019,239.121
30-May-2019,239.4672
31-May-2019,240.1178
03-Jun-2019,240.5943
04-Jun-2019,240.2888
05-Jun-2019,240.4934
06-Jun-2019,240.5736
07-Jun-2019,241.2547
10-Jun-2019,240.9215
11-Jun-2019,241.0582
12-Jun-2019,241.067
13-Jun-2019,241.4902
14-Jun-2019,241.5108
17-Jun-2019,241.6253
18-Jun-2019,242.4836
19-Jun-2019,242.9017
20-Jun-2019,243.8947
21-Jun-2019,243.4011
24-Jun-2019,244.1729
25-Jun-2019,244.286
26-Jun-2019,243.6897
27-Jun-2019,244.2531
28-Jun-2019,244.4744
01-Jul-2019,244.5767
02-Jul-2019,245.2068
03-Jul-2019,245.6988
04-Jul-2019,245.7619
05-Jul-2019,244.6446
08-Jul-2019,244.8593
09-Jul-2019,244.4831
10-Jul-2019,244.3061
11-Jul-2019,243.6536
12-Jul-2019,243.8233
15-Jul-2019,244.1711
16-Jul-2019,243.8976
17-Jul-2019,244.6464
18-Jul-2019,244.838
19-Jul-2019,244.9097
22-Jul-2019,245.1815
23-Jul-2019,245.1035
24-Jul-2019,245.6014
25-Jul-2019,245.4532
26-Jul-2019,245.5481
29-Jul-2019,245.8563
30-Jul-2019,245.5895
31-Jul-2019,246.1084
01-Aug-2019,247.2708
02-Aug-2019,247.3488
05-Aug-2019,247.8979
06-Aug-2019,248.0918
07-Aug-2019,248.6857
08-Aug-2019,248.4537
09-Aug-2019,248.3107
12-Aug-2019,249.3745
13-Aug-2019,248.9863
14-Aug-2019,249.9111
15-Aug-2019,250.4664
16-Aug-2019,250.2693
19-Aug-2019,249.6472
20-Aug-2019,250.3186
21-Aug-2019,250.3634
22-Aug-2019,249.8898
23-Aug-2019,250.8721
26-Aug-2019,250.5787
27-Aug-2019,251.396
28-Aug-2019,251.6466
29-Aug-2019,251.1515
30-Aug-2019,251.2282
02-Sep-2019,250.5178
03-Sep-2019,251.4602
04-Sep-2019,251.3395
05-Sep-2019,249.9289
06-Sep-2019,250.4793
09-Sep-2019,249.5055
10-Sep-2019,248.3907
11-Sep-2019,248.0995
12-Sep-2019,247.6432
13-Sep-2019,246.2951
16-Sep-2019,247.108
17-Sep-2019,247.3379
18-Sep-2019,247.7841
19-Sep-2019,248.1044
20-Sep-2019,248.4298
23-Sep-2019,249.1931
24-Sep-2019,249.8863
25-Sep-2019,248.5984
26-Sep-2019,249.1624
27-Sep-2019,249.2504
30-Sep-2019,249.3264
01-Oct-2019,249.693
02-Oct-2019,249.718
03-Oct-2019,250.3732
04-Oct-2019,250.678
07-Oct-2019,250.1785
08-Oct-2019,250.2566
09-Oct-2019,249.646
10-Oct-2019,248.7293
11-Oct-2019,248.0089
14-Oct-2019,248.0523
15-Oct-2019,248.0154
16-Oct-2019,248.2503
17-Oct-2019,248.3145
18-Oct-2019,248.432
21-Oct-2019,248.0698
22-Oct-2019,248.6042
23-Oct-2019,248.6658
24-Oct-2019,248.7678
25-Oct-2019,248.4763
28-Oct-2019,247.956
29-Oct-2019,248.1191
30-Oct-2019,248.5387
31-Oct-2019,249.7094
01-Nov-2019,249.3619
04-Nov-2019,248.7901
05-Nov-2019,247.9481
06-Nov-2019,248.6081
07-Nov-2019,247.423
08-Nov-2019,247.3204
11-Nov-2019,247.2491
12-Nov-2019,247.5773
13-Nov-2019,248.0708
14-Nov-2019,248.7311
15-Nov-2019,248.4886
18-Nov-2019,248.7056
19-Nov-2019,248.9802
20-Nov-2019,249.2951
21-Nov-2019,248.7389
22-Nov-2019,248.9847
25-Nov-2019,249.3132
26-Nov-2019,249.8966
27-Nov-2019,249.6832
28-Nov-2019,249.6668
29-Nov-2019,249.6243
02-Dec-2019,248.6658
03-Dec-2019,250.1908
04-Dec-2019,249.4578
05-Dec-2019,249.3463
06-Dec-2019,249.1366
09-Dec-2019,249.4692
10-Dec-2019,249.5005
11-Dec-2019,250.0277
12-Dec-2019,248.8599
13-Dec-2019,250.1207
16-Dec-2019,249.5433
17-Dec-2019,249.7238
18-Dec-2019,249.4346
19-Dec-2019,249.6426
20-Dec-2019,249.693
23-Dec-2019,249.4838
24-Dec-2019,249.7945
25-Dec-2019,249.7821
26-Dec-2019,249.8216
27-Dec-2019,250.2828
30-Dec-2019,249.8027
31-Dec-2019,249.6365
02-Jan-2020,250.106
03-Jan-2020,251.0879
06-Jan-2020,250.5964
07-Jan-2020,250.2902
08-Jan-2020,249.6842
09-Jan-2020,250.0053
10-Jan-2020,250.6571
13-Jan-2020,250.3751
14-Jan-2020,250.6795
15-Jan-2020,251.174
16-Jan-2020,251.1855
17-Jan-2020,251.1786
20-Jan-2020,251.1729
21-Jan-2020,252.0936
22-Jan-2020,252.3571
23-Jan-2020,252.7123
24-Jan-2020,253.3136
27-Jan-2020,253.7627
28-Jan-2020,253.3156
29-Jan-2020,253.9841
30-Jan-2020,254.0371
31-Jan-2020,254.3766
03-Feb-2020,254.4141
04-Feb-2020,253.6095
05-Feb-2020,253.2237
06-Feb-2020,253.5037
07-Feb-2020,254.3218
10-Feb-2020,254.6292
11-Feb-2020,254.2557
12-Feb-2020,253.8629
13-Feb-2020,253.9987
14-Feb-2020,254.43
17-Feb-2020,254.4007
18-Feb-2020,254.8207
19-Feb-2020,254.7104
20-Feb-2020,255.1174
21-Feb-2020,255.6487
24-Feb-2020,256.0356
25-Feb-2020,256.2235
26-Feb-2020,256.0245
27-Feb-2020,255.37
28-Feb-2020,256.0226
02-Mar-2020,256.049
03-Mar-2020,256.9621
04-Mar-2020,257.4624
05-Mar-2020,257.9379
06-Mar-2020,259.2932
09-Mar-2020,257.2464
10-Mar-2020,253.439
11-Mar-2020,251.2779
12-Mar-2020,247.0372
13-Mar-2020,244.8474
16-Mar-2020,243.7066
17-Mar-2020,238.8329
18-Mar-2020,231.2178
19-Mar-2020,227.7235
20-Mar-2020,227.4292
23-Mar-2020,228.1986
24-Mar-2020,229.1303
25-Mar-2020,231.4476
26-Mar-2020,234.2657
27-Mar-2020,235.9969
30-Mar-2020,237.5066
31-Mar-2020,238.1728
01-Apr-2020,238.0381
02-Apr-2020,237.8733
03-Apr-2020,237.9222
06-Apr-2020,238.0259
07-Apr-2020,238.8418
08-Apr-2020,239.8425
09-Apr-2020,243.1874
10-Apr-2020,243.1827
13-Apr-2020,244.9924
14-Apr-2020,246.4156
15-Apr-2020,247.423
16-Apr-2020,247.8584
17-Apr-2020,247.7372
20-Apr-2020,247.6086
21-Apr-2020,247.5902
22-Apr-2020,247.3501
23-Apr-2020,248.161
24-Apr-2020,248.4441
27-Apr-2020,247.9728
28-Apr-2020,248.6317
29-Apr-2020,248.8299
30-Apr-2020,249.0659
01-May-2020,248.5736
04-May-2020,248.1686
05-May-2020,248.1837
06-May-2020,246.9666
07-May-2020,247.5984
08-May-2020,246.7835
11-May-2020,245.8866
12-May-2020,246.6429
13-May-2020,246.9616
14-May-2020,247.0977
15-May-2020,247.3678
18-May-2020,247.2647
19-May-2020,248.114
20-May-2020,249.3856
21-May-2020,249.8934
22-May-2020,250.1114
25-May-2020,250.0997
26-May-2020,250.2794
27-May-2020,250.9295
28-May-2020,251.0188
29-May-2020,251.8398
01-Jun-2020,251.7511
02-Jun-2020,252.2655
03-Jun-2020,252.3707
04-Jun-2020,252.4066
05-Jun-2020,253.4155
08-Jun-2020,254.2776
09-Jun-2020,254.4023
10-Jun-2020,254.9342
11-Jun-2020,254.6521
12-Jun-2020,254.4679
15-Jun-2020,254.6206
16-Jun-2020,255.8395
17-Jun-2020,255.8973
18-Jun-2020,255.9529
19-Jun-2020,256.0993
22-Jun-2020,256.0795
23-Jun-2020,255.8359
24-Jun-2020,255.7273
25-Jun-2020,255.7339
26-Jun-2020,256.1022
29-Jun-2020,256.0402
30-Jun-2020,256.205
01-Jul-2020,256.2539
02-Jul-2020,257.1481
03-Jul-2020,257.1872
06-Jul-2020,257.6604
07-Jul-2020,258.0883
08-Jul-2020,258.0661
09-Jul-2020,258.8217
10-Jul-2020,258.593
13-Jul-2020,258.6179
14-Jul-2020,259.0831
15-Jul-2020,259.3616
16-Jul-2020,259.9478
17-Jul-2020,259.9724
20-Jul-2020,260.572
21-Jul-2020,261.2716
22-Jul-2020,261.7226
23-Jul-2020,262.0303
24-Jul-2020,261.8155
27-Jul-2020,261.7059
28-Jul-2020,261.9673
29-Jul-2020,261.8578
30-Jul-2020,262.3137
31-Jul-2020,262.4142
03-Aug-2020,262.1687
04-Aug-2020,262.9461
05-Aug-2020,262.8424
06-Aug-2020,263.3715
07-Aug-2020,263.1284
10-Aug-2020,263.1441
11-Aug-2020,262.0586
12-Aug-2020,261.7871
13-Aug-2020,260.9111
14-Aug-2020,260.5306
17-Aug-2020,260.7187
18-Aug-2020,260.807
19-Aug-2020,260.7522
20-Aug-2020,261.0846
21-Aug-2020,261.3074
24-Aug-2020,261.3542
25-Aug-2020,260.6472
26-Aug-2020,260.3283
27-Aug-2020,259.3801
28-Aug-2020,259.6192
31-Aug-2020,260.2768
01-Sep-2020,260.9005
02-Sep-2020,261.8983
03-Sep-2020,262.2247
04-Sep-2020,260.5595
07-Sep-2020,260.5202
08-Sep-2020,260.8555
09-Sep-2020,260.4644
10-Sep-2020,260.6379
11-Sep-2020,261.0667
14-Sep-2020,261.2683
15-Sep-2020,261.2053
16-Sep-2020,261.2312
17-Sep-2020,261.4667
18-Sep-2020,261.2995
21-Sep-2020,261.278
22-Sep-2020,261.2252
23-Sep-2020,260.8342
24-Sep-2020,260.3746
25-Sep-2020,259.9547
28-Sep-2020,260.0219
29-Sep-2020,260.4181
30-Sep-2020,260.0149
01-Oct-2020,260.2689
02-Oct-2020,260.1092
05-Oct-2020,259.6897
06-Oct-2020,260.4097
07-Oct-2020,259.9149
08-Oct-2020,260.3859
09-Oct-2020,260.5066
12-Oct-2020,260.5355
13-Oct-2020,261.4957
14-Oct-2020,261.6272
15-Oct-2020,261.4641
16-Oct-2020,261.5518
19-Oct-2020,261.4473
20-Oct-2020,260.9265
21-Oct-2020,260.7484
22-Oct-2020,260.2735
23-Oct-2020,260.5693
26-Oct-2020,261.0025
27-Oct-2020,261.5366
28-Oct-2020,261.1769
29-Oct-2020,260.4836
30-Oct-2020,260.1226
02-Nov-2020,260.4246
03-Nov-2020,260.3415
04-Nov-2020,262.1981
05-Nov-2020,262.8639
06-Nov-2020,262.5072
09-Nov-2020,261.7392
10-Nov-2020,261.4961
11-Nov-2020,261.5608
12-Nov-2020,262.4567
13-Nov-2020,262.5214
16-Nov-2020,262.7855
17-Nov-2020,263.3785
18-Nov-2020,263.6526
19-Nov-2020,264.2614
20-Nov-2020,264.7658
23-Nov-2020,264.5498
24-Nov-2020,264.5086
25-Nov-2020,264.5476
26-Nov-2020,264.6118
27-Nov-2020,265.1285
30-Nov-2020,265.4192
01-Dec-2020,264.6403
02-Dec-2020,264.5363
03-Dec-2020,265.277
04-Dec-2020,264.6131
07-Dec-2020,265.2584
08-Dec-2020,265.3382
09-Dec-2020,264.713
10-Dec-2020,265.3486
11-Dec-2020,265.5251
14-Dec-2020,265.4754
15-Dec-2020,265.1834
16-Dec-2020,265.2446
17-Dec-2020,265.4055
18-Dec-2020,265.2594
21-Dec-2020,265.2378
22-Dec-2020,265.634
23-Dec-2020,265.0946
24-Dec-2020,265.487
25-Dec-2020,265.4797
28-Dec-2020,265.6314
29-Dec-2020,265.9445
30-Dec-2020,266.1307
31-Dec-2020,266.4323
04-Jan-2021,266.276
05-Jan-2021,265.491
06-Jan-2021,264.2078
07-Jan-2021,264.1288
08-Jan-2021,264.0192
11-Jan-2021,263.6588
12-Jan-2021,263.4322
13-Jan-2021,264.5484
14-Jan-2021,264.2919
15-Jan-2021,264.5036
18-Jan-2021,264.4208
19-Jan-2021,264.8291
20-Jan-2021,264.8956
21-Jan-2021,264.291
22-Jan-2021,264.3609
25-Jan-2021,265.0169
26-Jan-2021,264.8936
27-Jan-2021,264.814
28-Jan-2021,264.4799
29-Jan-2021,264.1008
01-Feb-2021,264.218
02-Feb-2021,263.8664
03-Feb-2021,263.4699
04-Feb-2021,263.4616
05-Feb-2021,263.1862
08-Feb-2021,263.5976
09-Feb-2021,263.671
10-Feb-2021,264.0353
11-Feb-2021,263.8162
12-Feb-2021,263.0448
15-Feb-2021,262.8781
16-Feb-2021,262.0013
17-Feb-2021,262.5155
18-Feb-2021,262.3001
19-Feb-2021,261.4033
22-Feb-2021,260.7557
23-Feb-2021,260.3829
24-Feb-2021,260.0727
25-Feb-2021,258.3473
26-Feb-2021,260.1104
01-Mar-2021,259.954
02-Mar-2021,260.1776
03-Mar-2021,259.2008
04-Mar-2021,258.3969
05-Mar-2021,257.7956
08-Mar-2021,256.892
09-Mar-2021,257.5643
10-Mar-2021,257.9902
11-Mar-2021,258.0958
12-Mar-2021,256.6054
15-Mar-2021,256.9823
16-Mar-2021,256.8828
17-Mar-2021,256.4817
18-Mar-2021,255.7534
19-Mar-2021,256.1127
22-Mar-2021,256.7542
23-Mar-2021,257.3617
24-Mar-2021,257.703
25-Mar-2021,257.4382
26-Mar-2021,257.1603
29-Mar-2021,256.7054
30-Mar-2021,256.8504
31-Mar-2021,257.1435
01-Apr-2021,258.3065
02-Apr-2021,257.8614
05-Apr-2021,257.9688
06-Apr-2021,258.581
07-Apr-2021,258.344
08-Apr-2021,258.9514
09-Apr-2021,258.5875
12-Apr-2021,258.5671
13-Apr-2021,259.0041
14-Apr-2021,258.8415
15-Apr-2021,259.9062
16-Apr-2021,259.1651
19-Apr-2021,258.8231
20-Apr-2021,259.1172
21-Apr-2021,259.2858
22-Apr-2021,259.5265
23-Apr-2021,259.495
26-Apr-2021,259.4509
27-Apr-2021,258.9273
28-Apr-2021,258.9697
29-Apr-2021,258.6503
30-Apr-2021,258.8813
03-May-2021,259.0927
04-May-2021,259.4667
05-May-2021,259.63
06-May-2021,259.8162
07-May-2021,259.8257
10-May-2021,259.3199
11-May-2021,258.5894
12-May-2021,257.7232
13-May-2021,257.9594
14-May-2021,258.6243
17-May-2021,258.5417
18-May-2021,258.407
19-May-2021,257.9889
20-May-2021,258.6114
21-May-2021,258.8835
24-May-2021,259.2427
25-May-2021,260.0097
26-May-2021,260.0286
27-May-2021,259.6481
28-May-2021,260.0072
31-May-2021,260.0017
01-Jun-2021,259.6725
02-Jun-2021,259.9788
03-Jun-2021,259.5093
04-Jun-2021,260.5013
07-Jun-2021,260.3349
08-Jun-2021,260.8607
09-Jun-2021,261.5418
10-Jun-2021,262.094
11-Jun-2021,262.1938
